<?xml version="1.0" standalone="no"?>
<!DOCTYPE svg PUBLIC "-//W3C//DTD SVG 1.1//EN" "http://www.w3.org/Graphics/SVG/1.1/DTD/svg11.dtd" >
<svg xmlns="http://www.w3.org/2000/svg">
<metadata>Generated by IcoMoon</metadata>
<defs>
<font id="rrvt" horiz-adv-x="512">
<font-face units-per-em="512" ascent="480" descent="-32" />
<missing-glyph horiz-adv-x="512" />
<glyph unicode="&#x20;" d="" horiz-adv-x="256" />
<glyph unicode="&#xe600;" d="M384 261.333h-85.334v85.334c0 23.552-19.115 42.666-42.666 42.666s-42.666-19.114-42.666-42.666l1.514-85.334h-86.848c-23.552 0-42.666-19.114-42.666-42.666s19.115-42.666 42.666-42.666l86.848 1.514-1.514-86.848c0-23.552 19.114-42.666 42.666-42.666s42.666 19.115 42.666 42.666v86.848l85.334-1.514c23.552 0 42.666 19.115 42.666 42.666s-19.115 42.666-42.666 42.666z" />
<glyph unicode="&#xe601;" d="M371.498 328.832c-16.64 16.661-43.69 16.661-60.33 0l-55.168-55.168-55.168 55.168c-16.64 16.661-43.69 16.661-60.331 0-16.662-16.661-16.662-43.67 0-60.33l55.147-55.168-55.147-55.168c-16.662-16.661-16.662-43.669 0-60.331 8.32-8.341 19.243-12.502 30.166-12.502s21.845 4.16 30.166 12.502l55.168 55.168 55.168-55.168c8.32-8.341 19.243-12.502 30.166-12.502s21.846 4.16 30.166 12.502c16.661 16.661 16.661 43.669 0 60.331l-55.147 55.168 55.147 55.168c16.661 16.661 16.661 43.669 0 60.33z" />
<glyph unicode="&#xe602;" d="M362.070 335.979c-20.63 11.477-46.613 4.010-58.026-16.576l-79.21-142.55-45.333 45.334c-16.661 16.662-43.669 16.662-60.331 0s-16.662-43.67 0-60.33l85.333-85.334c8.064-8.086 18.944-12.522 30.166-12.522 1.963 0 3.946 0.128 5.91 0.426 13.248 1.856 24.874 9.813 31.381 21.526l106.666 192c11.456 20.608 4.032 46.57-16.555 58.026z" />
<glyph unicode="&#xe603;" d="M405.334 106.667h-298.666c-23.531 0-42.666-19.136-42.666-42.666s19.136-42.666 42.666-42.666h298.666c23.531 0 42.666 19.136 42.666 42.666s-19.136 42.666-42.666 42.666zM405.334 256h-298.666c-23.531 0-42.666-19.136-42.666-42.667s19.136-42.666 42.666-42.666h298.666c23.531 0 42.666 19.136 42.666 42.666s-19.136 42.667-42.666 42.667zM405.334 405.333h-298.666c-23.531 0-42.666-19.136-42.666-42.667s19.136-42.666 42.666-42.666h298.666c23.531 0 42.666 19.136 42.666 42.666s-19.136 42.667-42.666 42.667z" />
<glyph unicode="&#xe604;" d="M256 405.333c0 0-131.968-113.92-205.718-175.616-4.331-3.925-7.616-9.643-7.616-16.384 0-11.798 9.536-21.334 21.334-21.334h42.666v-149.334c0-11.798 9.536-21.334 21.334-21.334h64c11.798 0 21.334 9.558 21.334 21.334v85.334h85.334v-85.334c0-11.776 9.536-21.334 21.334-21.334h64c11.798 0 21.334 9.536 21.334 21.334v149.333h42.666c11.798 0 21.334 9.536 21.334 21.334 0 6.742-3.286 12.459-8.171 16.384-73.238 61.696-205.162 175.616-205.162 175.616z" />
<glyph unicode="&#xe605;" d="M256 384c-94.272 0-170.667-76.416-170.667-170.666s76.394-170.667 170.667-170.667 170.667 76.416 170.667 170.667-76.394 170.667-170.667 170.667zM335.082 164.416c8.341-8.341 8.341-21.824 0-30.166-4.16-4.16-9.622-6.25-15.082-6.25s-10.923 2.091-15.082 6.25l-48.918 48.918-48.917-48.918c-4.16-4.16-9.621-6.25-15.083-6.25s-10.923 2.091-15.083 6.25c-8.341 8.341-8.341 21.824 0 30.166l48.917 48.918-48.917 48.918c-8.341 8.341-8.341 21.824 0 30.166s21.824 8.341 30.166 0l48.917-48.917 48.918 48.917c8.341 8.341 21.824 8.341 30.166 0s8.341-21.824 0-30.166l-48.918-48.918 48.918-48.918z" />
<glyph unicode="&#xe606;" d="M434.837 403.712c-7.957 3.306-17.152 1.472-23.253-4.63l-82.496-82.496-91.755 73.408c-8.448 6.741-20.757 6.123-28.416-1.578l-96-96c-4.011-3.99-6.251-9.408-6.251-15.083v-213.334c0-8.618 5.184-16.426 13.162-19.712 2.645-1.13 5.418-1.622 8.17-1.622 5.547 0 11.008 2.176 15.083 6.25l82.496 82.496 91.755-73.408c8.448-6.741 20.714-6.080 28.416 1.579l96 96c4.010 3.99 6.25 9.408 6.25 15.082v213.334c0 8.618-5.184 16.426-13.163 19.712zM149.333 115.499v153.003l64 64v-154.454c-1.494-0.918-64-62.55-64-62.55zM237.333 176.661c-0.81 0.618-1.792 0.96-2.667 1.45v159.339c0 0 84.459-67.051 85.334-67.542v-159.424l-82.666 66.176zM405.334 179.499l-64-64v154.368c1.493 0.917 64 62.635 64 62.635v-153.003z" />
<glyph unicode="&#xe607;" d="M277.334 352.021c-5.462 0-10.923-2.070-15.082-6.23-4.16-4.182-6.25-9.642-6.25-15.104v-54.592c-96-10.624-170.667-91.925-170.667-190.742v-21.334c47.893 73.024 112 83.627 170.667 85.099v-53.099c0-5.44 2.091-10.923 6.25-15.082s9.622-6.25 15.082-6.25 10.923 2.091 15.082 6.25l134.25 132.416-134.25 132.438c-4.16 4.16-9.622 6.229-15.082 6.229z" />
<glyph unicode="&#xe608;" d="M256 401.664l-136.832-136.832c-16.662-16.661-16.662-43.67 0-60.331s43.669-16.661 60.331 0l33.834 33.835v-154.496c0-23.552 19.094-42.666 42.667-42.666 23.552 0 42.666 19.115 42.666 42.666v154.496l33.834-33.835c8.341-8.341 19.243-12.502 30.166-12.502s21.824 4.16 30.166 12.502c16.661 16.661 16.661 43.67 0 60.331l-136.832 136.832z" />
<glyph unicode="&#xe609;" d="M392.832 242.005c-16.661 16.661-43.669 16.661-60.331 0l-33.834-33.835v154.496c0 23.573-19.115 42.666-42.666 42.666-23.573 0-42.666-19.094-42.666-42.666v-154.496l-33.834 33.835c-16.661 16.662-43.669 16.662-60.331 0s-16.662-43.67 0-60.331l136.832-136.832 136.832 136.832c16.661 16.661 16.661 43.648 0 60.331z" />
<glyph unicode="&#xe60a;" d="M384 234.667h-154.538l33.834 33.834c16.661 16.661 16.661 43.712 0 60.33-16.661 16.662-43.669 16.662-60.331 0l-136.832-136.832 136.832-136.832c8.32-8.341 19.243-12.502 30.166-12.502s21.824 4.16 30.165 12.502c16.661 16.661 16.661 43.712 0 60.33l-33.834 33.834h154.538c23.552 0 42.666 19.115 42.666 42.666 0 23.574-19.115 42.667-42.666 42.667z" />
<glyph unicode="&#xe60b;" d="M225.834 328.832c-16.661-16.618-16.661-43.67 0-60.33l33.834-33.835h-154.538c-23.552 0-42.666-19.094-42.666-42.667 0-23.552 19.115-42.666 42.666-42.666h154.538l-33.834-33.834c-16.661-16.618-16.661-43.669 0-60.331 8.341-8.341 19.243-12.502 30.166-12.502s21.824 4.16 30.166 12.502l136.832 136.832-136.832 136.832c-16.661 16.661-43.669 16.661-60.331 0z" />
<glyph unicode="&#xe60c;" d="M442.795 355.307c-4.075 4.672-9.942 7.36-16.128 7.36h-294.805l-4.16 24.832c-1.707 10.283-10.602 17.835-21.035 17.835h-48c-11.797 0-21.334-9.536-21.334-21.334s9.536-21.334 21.334-21.334h29.93l39.68-238.166c0.171-0.96 0.661-1.75 0.96-2.646 0.341-1.13 0.619-2.197 1.152-3.221 0.683-1.408 1.6-2.603 2.56-3.818 0.661-0.832 1.258-1.664 2.026-2.389 1.238-1.152 2.667-1.962 4.118-2.774 0.81-0.448 1.514-1.046 2.389-1.387 2.475-1.002 5.077-1.6 7.829-1.6 0.022 0 234.688 0 234.688 0 11.798 0 21.334 9.536 21.334 21.334s-9.536 21.334-21.334 21.334h-216.597l-3.542 21.334h241.472c10.624 0 19.627 7.808 21.12 18.304l21.334 149.334c0.875 6.144-0.96 12.352-4.992 17.002zM402.070 320l-6.080-42.666h-75.99v42.666h82.070zM298.666 320v-42.666h-64v42.666h64zM298.666 256v-42.667h-64v42.667h64zM213.333 320v-42.666h-64c-1.131 0-2.155-0.32-3.157-0.64l-7.21 43.306h74.368zM149.632 256h63.702v-42.667h-56.597l-7.104 42.667zM320 213.333v42.667h72.918l-6.080-42.667h-66.838zM213.333 53.333c0-17.673-14.327-32-32-32s-32 14.327-32 32c0 17.673 14.327 32 32 32 17.673 0 32-14.327 32-32zM405.334 53.333c0-17.673-14.327-32-32-32s-32 14.327-32 32c0 17.673 14.327 32 32 32 17.673 0 32-14.327 32-32z" />
<glyph unicode="&#xe60d;" d="M405.334 320h-298.666c-23.552 0-42.666-19.114-42.666-42.666v-192c0-23.552 19.115-42.666 42.666-42.666h298.666c23.552 0 42.666 19.115 42.666 42.666v192c0 23.552-19.115 42.666-42.666 42.666zM198.742 163.925l34.176-29.866c6.506-5.675 14.742-8.49 23.082-8.49s16.576 2.837 23.082 8.49l34.176 29.866-0.789-0.789 77.781-77.781h-268.502l77.781 77.781-0.79 0.789zM106.666 100.416v144.064l76.843-67.222-76.843-76.842zM328.49 177.259l76.842 67.222v-144l-76.842 76.779zM405.334 277.333v-4.48l-140.288-122.752c-4.842-4.224-13.248-4.224-18.090 0l-140.288 122.752v4.48h298.666z" />
<glyph unicode="&#xe60e;" d="M405.334 341.333h-33.834l-21.334 21.333c-12.352 12.352-34.026 21.334-51.498 21.334h-85.334c-17.472 0-39.147-8.982-51.499-21.334l-21.333-21.333h-33.834c-35.285 0-64-28.715-64-64v-170.667c0-35.286 28.715-64 64-64h298.666c35.286 0 64 28.714 64 64v170.667c0 35.286-28.714 64-64 64zM256 128c-41.238 0-74.666 33.45-74.666 74.666 0 41.259 33.429 74.666 74.666 74.666s74.666-33.408 74.666-74.666c0-41.216-33.43-74.666-74.666-74.666zM384 228.288c-15.339 0-27.733 12.374-27.733 27.712s12.394 27.754 27.733 27.754 27.733-12.416 27.733-27.754-12.394-27.712-27.733-27.712z" />
<glyph unicode="&#xe60f;" d="M256 480c-88.366 0-160-71.634-160-160 0-160 160-352 160-352s160 192 160 352c0 88.366-71.635 160-160 160zM256 222c-54.124 0-98 43.876-98 98s43.876 98 98 98 98-43.876 98-98-43.876-98-98-98zM194 320c0 34.241 27.758 62 62 62s62-27.759 62-62c0-34.241-27.759-62-62-62-34.242 0-62 27.759-62 62z" />
<glyph unicode="&#xe610;" d="M352 160c-32-32-32-64-64-64s-64 32-96 64-64 64-64 96 32 32 64 64-64 128-96 128-96-96-96-96c0-64 65.75-193.75 128-256s192-128 256-128c0 0 96 64 96 96s-96 128-128 96z" />
<glyph unicode="&#xe611;" d="M544 29.417c0-22.75 13.014-42.454 32-52.092v-7.969c-5.313-0.727-10.736-1.112-16.25-1.112-34.004 0-64.674 14.264-86.361 37.132-13.111-3.491-27.001-5.376-41.389-5.376-79.529 0-144 57.308-144 128 0 70.692 64.471 128 144 128 79.529 0 144-57.308 144-128 0-27.674-9.882-53.296-26.678-74.233-3.412-7.412-5.322-15.656-5.322-24.35zM256 480c139.229 0 252.496-90.307 255.918-202.76-24.591 10.96-51.793 16.76-79.918 16.76-47.78 0-92.908-16.723-127.069-47.089-35.423-31.486-54.931-73.717-54.931-118.911 0-22.336 4.772-43.944 13.868-63.894-2.614-0.063-5.234-0.106-7.868-0.106-13.578 0-26.905 0.867-39.912 2.522-54.989-54.989-120.625-64.85-184.088-66.298v13.458c34.268 16.789 64 47.37 64 82.318 0 4.877-0.379 9.665-1.082 14.348-57.898 38.132-94.918 96.377-94.918 161.652 0 114.875 114.615 208 256 208z" horiz-adv-x="576" />
<glyph unicode="&#xe612;" d="M287.935-32h-95.935v256h-64v88.225l64 0.029-0.104 51.976c0 71.976 19.517 115.77 104.299 115.77h70.588v-88.242h-44.115c-33.016 0-34.603-12.328-34.603-35.342l-0.131-44.162h79.345l-9.352-88.225-69.927-0.029-0.065-256z" />
<glyph unicode="&#xe613;" d="M512 382.791c-18.838-8.354-39.082-14.001-60.33-16.54 21.686 13 38.343 33.585 46.186 58.115-20.298-12.039-42.778-20.78-66.705-25.49-19.16 20.415-46.461 33.17-76.673 33.17-58.011 0-105.044-47.029-105.044-105.039 0-8.233 0.929-16.25 2.72-23.939-87.3 4.382-164.701 46.2-216.509 109.753-9.042-15.514-14.223-33.558-14.223-52.809 0-36.444 18.544-68.596 46.73-87.433-17.219 0.546-33.416 5.271-47.577 13.139-0.010-0.438-0.010-0.878-0.010-1.321 0-50.894 36.209-93.348 84.261-103-8.813-2.4-18.094-3.686-27.674-3.686-6.769 0-13.349 0.66-19.764 1.886 13.368-41.73 52.16-72.103 98.126-72.948-35.95-28.175-81.243-44.967-130.458-44.967-8.479 0-16.84 0.497-25.058 1.47 46.486-29.805 101.701-47.197 161.021-47.197 193.211 0 298.868 160.062 298.868 298.872 0 4.554-0.103 9.084-0.305 13.59 20.528 14.81 38.336 33.31 52.418 54.374z" />
<glyph unicode="&#xe614;" d="M496.131 44.302l-121.276 103.147c-12.537 11.283-25.945 16.463-36.776 15.963 28.628 33.534 45.921 77.039 45.921 124.588 0 106.039-85.961 192-192 192-106.038 0-192-85.961-192-192 0-106.039 85.961-192 192-192 47.549 0 91.054 17.293 124.588 45.922-0.5-10.831 4.68-24.239 15.963-36.776l103.147-121.276c17.661-19.623 46.511-21.277 64.11-3.678s15.946 46.449-3.677 64.11zM192 160c-70.692 0-128 57.308-128 128s57.308 128 128 128 128-57.308 128-128-57.307-128-128-128zM224 384h-64v-64h-64v-64h64v-64h64v64h64v64h-64z" />
<glyph unicode="&#xe615;" d="M496.131 44.302l-121.276 103.147c-12.537 11.283-25.945 16.463-36.776 15.963 28.628 33.534 45.921 77.039 45.921 124.588 0 106.039-85.961 192-192 192-106.038 0-192-85.961-192-192 0-106.039 85.961-192 192-192 47.549 0 91.054 17.293 124.588 45.922-0.5-10.831 4.68-24.239 15.963-36.776l103.147-121.276c17.661-19.623 46.511-21.277 64.11-3.678s15.946 46.449-3.677 64.11zM192 160c-70.692 0-128 57.308-128 128s57.308 128 128 128 128-57.308 128-128-57.307-128-128-128zM96 320h192v-64h-192z" />
<glyph unicode="&#xe616;" d="M512 480v-192l-69.13 69.13-106-106-53.74 53.74 106 106-69.13 69.13zM122.87 410.87l106-106-53.74-53.74-106 106-69.13-69.13v192h192zM442.87 90.87l69.13 69.13v-192h-192l69.13 69.13-106 106 53.74 53.74zM228.87 143.13l-106-106 69.13-69.13h-192v192l69.13-69.13 106 106z" />
</font></defs></svg>